com/hendisantika/jqueryajax/message/Response.class
com/hendisantika/jqueryajax/model/Customer.class
com/hendisantika/jqueryajax/controller/RestWebController.class
com/hendisantika/jqueryajax/SpringBootJQueryAjaxClientApplication.class
com/hendisantika/jqueryajax/controller/WebController.class
